…
+             Road.class * coefficients["Road.class"]
+     ) %>%
+     ungroup()
> # Add a new column 'mu' which is the exponential of 'reg'
> before_treated <- before_treated %>%
+     mutate(mu = exp(reg))
> treated <- treated %>%
+         mutate(Total = Fatal + Serious + Slight)
> 
> # Add 'Total' column from 'treated' to 'before_treated'
> before_treated <- before_treated %>%
+     mutate(Total = treated %>% pull(Total))
> # View the updated dataset
> print(before_treated)
# A tibble: 56 × 11
   `(Intercept)` Av.Sp  X85. X.ov.lim X.15.ov.lim
           <dbl> <int> <int>    <int>       <int>
 1             1    55    63       20           9
 2             1    51    60        9           1
 3             1    60    67       31           4
 4             1    38    46        1           0
 5             1    57    67        7           1
 6             1    55    63       20           1
 7             1    65    76       57           8
 8             1    32    39       63           2
 9             1    28    33       19           1
10             1    41    38       45           1
# ℹ 46 more rows
# ℹ 6 more variables: Flow <dbl>, Road.class <int>,
#   reg <dbl>, reg1 <dbl>, mu <dbl>, Total <int>
# ℹ Use `print(n = ...)` to see more rows
…
